[{
  "id":1,
  "text":"后台管理员",
  "link":"/user/doUserManage"
},{
  "id":2,
  "text":"班组人员管理",
  "link":"/person/doPersonMain"
},{
  "id":3,
  "text":"线路管理",
  "link":"/line/doLineMain"
},{
  "id":4,
  "text":"巡线管理",
  "link":"/patrol/doPatrolMain"
},{
  "id":5,
  "text":"轨迹备份任务管理",
  "link":"/job/doJobMain"
}]